{
  "data": [
    {
      "id": "1",
      "title": "仕事を始めるにはどうすればいいですか？",
      "body": "まず登録をした後は、プロフィール内容と画像の設定、そして年齢認証が必要です。\n詳しい設定方法については、接客マニュアルに記載がありますのでそちらを見ながら行ってください。すべて完了すると、お仕事を始めることができるようになります",
      "category": "お仕事について"
    },
    {
      "id": "2",
      "title": "プロフィール画像にはどういう画像を登録すればいいですか？",
      "body": "ご自身の顔写真を使ってください。\n顔出しに抵抗がある場合は、後ろ姿や口元など、ご自身の雰囲気がわかる写真を使用しましょう。\n他の方の写真やイラスト、拾ってきた画像などは使用しないでください。",
      "category": "お仕事について"
    },
    {
      "id": "3",
      "title": "働き方にはどんな方法がありますか？",
      "body": "チャットで働く方法と、通話で働く方法があります。\nチャットは、お客様から管理画面上にメッセージが届きますので、そちらを見ながらやり取りを行うものです。通話については、設定した電話番号宛に電話がかかってきてお客様とのやり取りが発生します。システムを通じてやり取りを行うので、お互いの電話番号はわかることはありません。ご安心ください。",
      "category": "お仕事について"
    },
    {
      "id": "4",
      "title": "チャットで働きたい",
      "body": "左側メニューバー内にあるご自身の名前と報酬額の下に「オフライン」と書かれたボタンがあります。そちらをクリックして「チャット待機」を選択して「待機する」ボタンを押してください。\nそうしますと、ステラのアプリ上でチャット待機中として表示されます。",
      "category": "お仕事について"
    },
    {
      "id": "5",
      "title": "通話で働きたい",
      "body": "左側メニューバー内にあるご自身の名前と報酬額の下に「オフライン」\nと書かれたボタンがあります。そちらをクリックして「通話相談」を選択して「待機する」ボタンを押してください。そうしますと、ステラのアプリ上で通話相談待機中として表示されます。",
      "category": "お仕事について"
    },
    {
      "id": "6",
      "title": "チャットも通話もどちらでも働きたい",
      "body": "上記のチャットと通話相談待機のボタンをどちらもオンにして「待機する」ボタンを押してください。",
      "category": "お仕事について"
    },
    {
      "id": "7",
      "title": "タイムラインには何を書けばいいですか？",
      "body": "タイムラインはどなたでも見ることができるので、お客様へのアピールが可能です。\n毎日のちょっとした占いや、ご自身の今日の稼働状況など、自分自身をアピールできる内容を記入してみましょう。",
      "category": "お仕事について"
    },
    {
      "id": "8",
      "title": "ログインメールアドレスを変更したい",
      "body": "上部メニューの「設定」→「アカウント編集」から行えます。",
      "category": "登録情報の変更について "
    },
    {
      "id": "9",
      "title": "電話番号を変更したい",
      "body": "上部メニューの「設定」→「アカウント編集」から行えます。",
      "category": "登録情報の変更について "
    },
    {
      "id": "10",
      "title": "ログインパスワードを変更したい",
      "body": "上部メニューの「設定」→「アカウント編集」から行えます。",
      "category": "登録情報の変更について "
    },
    {
      "id": "11",
      "title": "銀行口座の設定、変更をしたい",
      "body": "上部メニューの「設定」→「銀行口座情報編集」から行えます。",
      "category": "登録情報の変更について "
    },
    {
      "id": "12",
      "title": "銀行口座で使用している銀行、もしくは支店がない",
      "body": "お問い合わせ窓口までご連絡ください。追加します。",
      "category": "登録情報の変更について "
    },
    {
      "id": "13",
      "title": "銀行口座で使用している支店コードが、銀行の合併などで変更になって表記と異なっている",
      "body": "お問い合わせ窓口までご連絡ください。修正いたします。自動では変更されないため、ご連絡が必要です。",
      "category": "登録情報の変更について "
    },
    {
      "id": "14",
      "title": "報酬金額を教えてください。",
      "body": "1pts＝1.0円 \nチャット相談：1文字ごとに1pt（送信、受信とも）\n通話相談：1分ごとに60pts（非課金ユーザーの場合30pts）\nタイムライン：お客様からのコメント1文字ごとに1pts ",
      "category": "報酬、精算について"
    },
    {
      "id": "15",
      "title": "報酬はどのような方法で支払われるのですか？",
      "body": "銀行振り込みでお支払いします。\n銀行口座の登録をお願いします。\n部メニューの「設定」→「銀行口座情報編集」から行えます。",
      "category": "報酬、精算について"
    },
    {
      "id": "16",
      "title": "精算はいつできますか？できる期日は決まっていますか？",
      "body": "精算可能金額がたまっていれば、任意のタイミングで行えます。",
      "category": "報酬、精算について"
    },
    {
      "id": "17",
      "title": "精算はいくらからできますか？",
      "body": "5540円からとなります。初回は3450円から換金可能です。",
      "category": "報酬、精算について"
    },
    {
      "id": "18",
      "title": "精算手数料はいくらですか？",
      "body": "現在オープン記念で半額の540円となっております。",
      "category": "報酬、精算について"
    },
    {
      "id": "19",
      "title": "精算してからどれぐらいで振り込まれますか？",
      "body": "精算ボタンを押した翌営業日に事務局で受け付けます。\n更にその翌営業日に、ご指定の銀行口座へ振り込みます。\n土日祝日を挟む場合は、その分ずれこみますのでご注意ください。",
      "category": "報酬、精算について"
    },
    {
      "id": "20",
      "title": "精算したけど口座情報が間違っていた！どうなりますか？",
      "body": "お振込みを行い、口座番号などが間違っていた場合は銀行から組み戻し（返金）が発生します。\nその場合はその分のポイントをお返しして連絡しますので、メールの内容を確認して対応してください。ポイントがなくなったりすることはありませんので、安心してください。（事務手数料の540円はお戻しできません）",
      "category": "報酬、精算について"
    },
    {
      "id": "21",
      "title": "退会したい",
      "body": "アカウント情報を添えてご連絡ください。お手続きします。",
      "category": "その他"
    }
  ]
  }